…
  |                                                                         |....................                                             |  30%
  ordinary text without R code

  |                                                                         |..........................                                       |  40%
label: unnamed-chunk-2 (with options) 
List of 1
 $ echo: logi FALSE


Error in View : object 'list_dados_tratados' not found
$Constantes
# A tibble: 51 x 3
           Variavel       Valor `Estimar?`
              <chr>       <dbl>      <chr>
 1     Funcionarios     1857.00        Sim
 2 FolhadePagamento 65678114.10        Sim
 3        RATTabela        0.03        Sim
 4        DiasUteis      261.00        Sim
 5      HorasPorDia        8.80        Sim
 6         CustoMDO       22.80        Sim
 7    NB_91_Inicial        0.00        Sim
 8    NB_92_Inicial        0.00        Sim
 9    NB_93_Inicial        0.00        Sim
10    NB_94_Inicial        0.00        Sim
# ... with 41 more rows
…
